{
  "$schema": "https://themost-framework.github.io/themost/models/2018/2/schema.json",
  "@id": "https://universis.io/schemas/InstantMessageReactionType",
  "name": "InstantMessageReactionType",
  "title": "Type of reaction on a given message",
  "hidden": false,
  "sealed": false,
  "abstract": false,
  "caching": "always",
  "implements": "Enumeration",
  "version": "0.1",
  "fields": [
    {
      "name": "id",
      "title": "Id",
      "type": "Counter",
      "nullable": false,
      "primary": true
    }
  ],
  "privileges": [
    {
      "mask": 1,
      "type": "global",
      "account": "*"
    },
    {
      "mask": 15,
      "type": "global"
    },
    {
      "mask": 15,
      "type": "global",
      "account": "Administrators"
    }
  ],
  "constraints": [
    {
      "type": "unique",
      "fields": [
        "alternateName"
      ]
    }
  ],
  "seed": [
    {
      "alternateName": "like",
      "name": "Like"
    },
    {
      "alternateName": "super",
      "name": "Super"
    }
  ],
  "eventListeners": [
    {
      "type": "@themost/data/previous-state-listener"
    }
  ]
}