[
  {
    "scope": [
      "*"
    ],
    "resource": "/api/MessagingChannels",
    "access": [
      "read",
      "write"
    ]
  },
  {
    "scope": [
      "*"
    ],
    "resource": "/api/CourseClassMessagingChannels",
    "access": [
      "read",
      "write"
    ]
  },
  {
    "scope": [
      "*"
    ],
    "resource": "/api/StudentThesisMessagingChannels",
    "access": [
      "read",
      "write"
    ]
  },
  {
    "scope": [
      "*"
    ],
    "resource": "/api/DirectMessagingChannels",
    "access": [
      "read",
      "write"
    ]
  }
]